{
    "products": [
    {
        "name" : "Juego de tronos",
        "price" : 19.95,
        "image" : "assets/img/got.jpg",
        "description" : "Uno de los libros más populares en los últimos años, el libro, posteriormente adaptado a la televisión, amasa millones de fanaticos."
    },
    {
        "name" : "Los magos",
        "price" : 16.95,
        "image" : "assets/img/magos.jpg",
        "description" : "Primera entrega de la extraordinaria y absorbente trilogía «Los Magos» en la que la magia se imagina como una actividad practicada por personas de carne y hueso con sus deseos, sus caprichos y sus volubles emociones"
    },
    {
        "name" : "Harry potter",
        "price" : 18.95,
        "image" : "assets/img/Harry.jpg",
        "description" : "Harry Potter es una serie de novelas fantásticas escrita por la autora británica J. K. Rowling, en la que se describen las aventuras del joven aprendiz de magia y hechicería Harry Potter y sus amigos Hermione Granger y Ron Weasley"
    },
    {
        "name" : "1984",
        "price" : 24.95,
        "image" : "assets/img/1984.jpg",
        "description" : "En el año 1984 Londres es una ciudad lúgubre en la que la Policía del Pensamiento controla de forma asfixiante la vida de los ciudadanos. Winston Smith es un peón de este engranaje perverso y su cometido es reescribir la historia para adaptarla a lo que el Partido considera la versión oficial de los hechos. Hasta que decide replantearse la verdad del sistema que los gobierna y somete."
    },
    {
        "name" : "El hobbit",
        "price" : 29.95,
        "image" : "assets/img/Hobbit.jpg",
        "description" : "Un gran clásico moderno y el preludio de las vastas y poderosas mitologías de El Señor de los Anillos. Smaug parecía profundamente dormido cuando Bilbo espió una vez más desde la entrada. ¡Pero fingía estar dormido! ¡Estaba vigilando la entrada del túnel!... Sacado de su cómodo agujero-hobbit por Gandalf y una banda de enanos, Bilbo se encuentra de pronto en medio de una conspiración que pretende apoderarse del tesoro de Smaug el Magnífico, un enorme y muy peligroso dragón"
    },
    {
        "name" : "El corredor del laberinto",
        "price" : 18.95,
        "image" : "assets/img/Corredor.jpg",
        "description" : "The Maze Runner, es una novela distópica escrita por el autor estadounidense James Dashner, como primer libro de la trilogía homónima. Fue publicado en octubre de 2009 por Delacorte Press"
    },
    {
        "name" : "Tokyo ghoul",
        "price" : 7.95,
        "image" : "assets/img/Tokyo.jpg",
        "description" : "Extraños sucesos ocurren en Tokio; se piensa que las criaturas responsables son los llamados “ghouls”. En tanto, la vida de Ken Kaneki, un joven universitario muy inteligente y tímido, cambiará radicalmente cuando conozca a una extraña chica, Rize."
    }
    
    ]
}